aufwaermteil/divsim.vcd
$date
	Wed Jun 24 08:21:36 2020
$end
$version
	Icarus Verilog
$end
$timescale
	1s
$end
$scope module DivisionTestbench $end
$var wire 32 ! rres [31:0] $end
$var wire 32 " qres [31:0] $end
$var reg 1 # clk $end
$var reg 1 $ s $end
$scope module divider $end
$var wire 32 % a [31:0] $end
$var wire 32 & b [31:0] $end
$var wire 1 # clock $end
$var wire 32 ' q [31:0] $end
$var wire 32 ( r [31:0] $end
$var wire 1 $ start $end
$var reg 32 ) forA [31:0] $end
$var reg 32 * forB [31:0] $end
$var reg 32 + forR [31:0] $end
$var integer 32 , count [31:0] $end
$var integer 32 - rStrich [31:0] $end
$upscope $end
$upscope $end
$enddefinitions $end
#0
$dumpvars
bx -
bx ,
bx +
bx *
bx )
bx (
bx '
b11 &
b111 %
0$
1#
bx "
bx !
$end
#1
1$
#2
0#
#4
b0 ,
b111 "
b111 '
b111 )
b11 *
b0 !
b0 (
b0 +
1#
#5
0$
#6
0#
#8
b1 !
b1 (
b1 +
b101 "
b101 '
b101 )
b1 -
b1 ,
1#
#10
0#
#12
b10 !
b10 (
b10 +
b101 -
b10 ,
1#
#14
0#
#16
b101 !
b101 (
b101 +
b1101 "
b1101 '
b1101 )
b1000 -
b11 ,
1#
#18
0#
#20
b10001 !
b10001 (
b10001 +
b11101 "
b11101 '
b11101 )
b10100 -
b100 ,
1#
#22
0#
#24
b1000001 !
b1000001 (
b1000001 +
b111101 "
b111101 '
b111101 )
b1000100 -
b101 ,
1#
#26
0#
#28
b100000001 !
b100000001 (
b100000001 +
b1111101 "
b1111101 '
b1111101 )
b100000100 -
b110 ,
1#
#30
0#
#32
b10000000001 !
b10000000001 (
b10000000001 +
b11111101 "
b11111101 '
b11111101 )
b10000000100 -
b111 ,
1#
#34
0#
#36
b1000000000001 !
b1000000000001 (
b1000000000001 +
b111111101 "
b111111101 '
b111111101 )
b1000000000100 -
b1000 ,
1#
#38
0#
#40
b100000000000001 !
b100000000000001 (
b100000000000001 +
b1111111101 "
b1111111101 '
b1111111101 )
b100000000000100 -
b1001 ,
1#
#42
0#
#44
b10000000000000001 !
b10000000000000001 (
b10000000000000001 +
b11111111101 "
b11111111101 '
b11111111101 )
b10000000000000100 -
b1010 ,
1#
#46
0#
#48
b1000000000000000001 !
b1000000000000000001 (
b1000000000000000001 +
b111111111101 "
b111111111101 '
b111111111101 )
b1000000000000000100 -
b1011 ,
1#
#50
0#
#52
b100000000000000000001 !
b100000000000000000001 (
b100000000000000000001 +
b1111111111101 "
b1111111111101 '
b1111111111101 )
b100000000000000000100 -
b1100 ,
1#
#54
0#
#56
b10000000000000000000001 !
b10000000000000000000001 (
b10000000000000000000001 +
b11111111111101 "
b11111111111101 '
b11111111111101 )
b10000000000000000000100 -
b1101 ,
1#
#58
0#
#60
b1000000000000000000000001 !
b1000000000000000000000001 (
b1000000000000000000000001 +
b111111111111101 "
b111111111111101 '
b111111111111101 )
b1000000000000000000000100 -
b1110 ,
1#
#62
0#
#64
b100000000000000000000000001 !
b100000000000000000000000001 (
b100000000000000000000000001 +
b1111111111111101 "
b1111111111111101 '
b1111111111111101 )
b100000000000000000000000100 -
b1111 ,
1#
#66
0#
#68
b10000000000000000000000000001 !
b10000000000000000000000000001 (
b10000000000000000000000000001 +
b11111111111111101 "
b11111111111111101 '
b11111111111111101 )
b10000000000000000000000000100 -
b10000 ,
1#
#70
0#
#72
b1000000000000000000000000000001 !
b1000000000000000000000000000001 (
b1000000000000000000000000000001 +
b111111111111111101 "
b111111111111111101 '
b111111111111111101 )
b1000000000000000000000000000100 -
b10001 ,
1#
#74
0#
#76
b1 !
b1 (
b1 +
b1111111111111111101 "
b1111111111111111101 '
b1111111111111111101 )
b100 -
b10010 ,
1#
#78
0#
#80
b11111111111111111101 "
b11111111111111111101 '
b11111111111111111101 )
b10011 ,
1#
#82
0#
#84
b111111111111111111101 "
b111111111111111111101 '
b111111111111111111101 )
b10100 ,
1#
#86
0#
#88
b1111111111111111111101 "
b1111111111111111111101 '
b1111111111111111111101 )
b10101 ,
1#
#90
0#
#92
b11111111111111111111101 "
b11111111111111111111101 '
b11111111111111111111101 )
b10110 ,
1#
#94
0#
#96
b111111111111111111111101 "
b111111111111111111111101 '
b111111111111111111111101 )
b10111 ,
1#
#98
0#
#100
b1111111111111111111111101 "
b1111111111111111111111101 '
b1111111111111111111111101 )
b11000 ,
1#
#102
0#
#104
b11111111111111111111111101 "
b11111111111111111111111101 '
b11111111111111111111111101 )
b11001 ,
1#
#106
0#
#108
b111111111111111111111111101 "
b111111111111111111111111101 '
b111111111111111111111111101 )
b11010 ,
1#
#110
0#
#112
b1111111111111111111111111101 "
b1111111111111111111111111101 '
b1111111111111111111111111101 )
b11011 ,
1#
#114
0#
#116
b11111111111111111111111111101 "
b11111111111111111111111111101 '
b11111111111111111111111111101 )
b11100 ,
1#
#118
0#
#120
b111111111111111111111111111101 "
b111111111111111111111111111101 '
b111111111111111111111111111101 )
b11101 ,
1#
#122
0#
#124
b1111111111111111111111111111101 "
b1111111111111111111111111111101 '
b1111111111111111111111111111101 )
b11110 ,
1#
#126
0#
#128
b11111111111111111111111111111101 "
b11111111111111111111111111111101 '
b11111111111111111111111111111101 )
b11111 ,
1#
